{
	"info": {
		"_postman_id": "b4dcd1b0-53d9-4a11-8198-9818bc6f39e1",
		"name": "Reqres-Gres",
		"schema": "https://schema.getpostman.com/json/collection/v2.1.0/collection.json",
		"_exporter_id": "30331433"
	},
	"item": [
		{
			"name": "LIST USERS",
			"request": {
				"method": "GET",
				"header": [],
				"url": {
					"raw": "https://reqres.in/api/users?page=2",
					"protocol": "https",
					"host": [
						"reqres",
						"in"
					],
					"path": [
						"api",
						"users"
					],
					"query": [
						{
							"key": "page",
							"value": "2"
						}
					]
				}
			},
			"response": [
				{
					"name": "New Request",
					"originalRequest": {
						"method": "GET",
						"header": [],
						"url": {
							"raw": "https://reqres.in/api/users?page=2",
							"protocol": "https",
							"host": [
								"reqres",
								"in"
							],
							"path": [
								"api",
								"users"
							],
							"query": [
								{
									"key": "page",
									"value": "2"
								}
							]
						}
					},
					"status": "OK",
					"code": 200,
					"_postman_previewlanguage": "json",
					"header": [
						{
							"key": "Date",
							"value": "Sat, 07 Oct 2023 12:53:12 GMT"
						},
						{
							"key": "Content-Type",
							"value": "application/json; charset=utf-8"
						},
						{
							"key": "Transfer-Encoding",
							"value": "chunked"
						},
						{
							"key": "Connection",
							"value": "keep-alive"
						},
						{
							"key": "X-Powered-By",
							"value": "Express"
						},
						{
							"key": "Access-Control-Allow-Origin",
							"value": "*"
						},
						{
							"key": "Etag",
							"value": "W/\"406-ut0vzoCuidvyMf8arZpMpJ6ZRDw\""
						},
						{
							"key": "Via",
							"value": "1.1 vegur"
						},
						{
							"key": "Cache-Control",
							"value": "max-age=14400"
						},
						{
							"key": "CF-Cache-Status",
							"value": "HIT"
						},
						{
							"key": "Age",
							"value": "1316"
						},
						{
							"key": "Report-To",
							"value": "{\"endpoints\":[{\"url\":\"https:\\/\\/a.nel.cloudflare.com\\/report\\/v3?s=9Plc4qji0fqppf6fG0NkVhtejKhdbmvUKAJ3IKNMJBJv74NmHHnlVEb4bAhDcJdgWPGk4UQFb3vi2jHMGIoNRRSy%2B6sJNQBVgyEAajp72u3oIsnbW7Lkge9AwA%3D%3D\"}],\"group\":\"cf-nel\",\"max_age\":604800}"
						},
						{
							"key": "NEL",
							"value": "{\"success_fraction\":0,\"report_to\":\"cf-nel\",\"max_age\":604800}"
						},
						{
							"key": "Vary",
							"value": "Accept-Encoding"
						},
						{
							"key": "Server",
							"value": "cloudflare"
						},
						{
							"key": "CF-RAY",
							"value": "812649215fbe7b4b-DME"
						},
						{
							"key": "Content-Encoding",
							"value": "br"
						}
					],
					"cookie": [],
					"body": "{\n    \"page\": 2,\n    \"per_page\": 6,\n    \"total\": 12,\n    \"total_pages\": 2,\n    \"data\": [\n        {\n            \"id\": 7,\n            \"email\": \"michael.lawson@reqres.in\",\n            \"first_name\": \"Michael\",\n            \"last_name\": \"Lawson\",\n            \"avatar\": \"https://reqres.in/img/faces/7-image.jpg\"\n        },\n        {\n            \"id\": 8,\n            \"email\": \"lindsay.ferguson@reqres.in\",\n            \"first_name\": \"Lindsay\",\n            \"last_name\": \"Ferguson\",\n            \"avatar\": \"https://reqres.in/img/faces/8-image.jpg\"\n        },\n        {\n            \"id\": 9,\n            \"email\": \"tobias.funke@reqres.in\",\n            \"first_name\": \"Tobias\",\n            \"last_name\": \"Funke\",\n            \"avatar\": \"https://reqres.in/img/faces/9-image.jpg\"\n        },\n        {\n            \"id\": 10,\n            \"email\": \"byron.fields@reqres.in\",\n            \"first_name\": \"Byron\",\n            \"last_name\": \"Fields\",\n            \"avatar\": \"https://reqres.in/img/faces/10-image.jpg\"\n        },\n        {\n            \"id\": 11,\n            \"email\": \"george.edwards@reqres.in\",\n            \"first_name\": \"George\",\n            \"last_name\": \"Edwards\",\n            \"avatar\": \"https://reqres.in/img/faces/11-image.jpg\"\n        },\n        {\n            \"id\": 12,\n            \"email\": \"rachel.howell@reqres.in\",\n            \"first_name\": \"Rachel\",\n            \"last_name\": \"Howell\",\n            \"avatar\": \"https://reqres.in/img/faces/12-image.jpg\"\n        }\n    ],\n    \"support\": {\n        \"url\": \"https://reqres.in/#support-heading\",\n        \"text\": \"To keep ReqRes free, contributions towards server costs are appreciated!\"\n    }\n}"
				}
			]
		},
		{
			"name": "SINGLE USER",
			"request": {
				"method": "GET",
				"header": [],
				"url": {
					"raw": "https://reqres.in/api/users/2",
					"protocol": "https",
					"host": [
						"reqres",
						"in"
					],
					"path": [
						"api",
						"users",
						"2"
					]
				}
			},
			"response": [
				{
					"name": "New Request",
					"originalRequest": {
						"method": "GET",
						"header": [],
						"url": {
							"raw": "https://reqres.in/api/users/2",
							"protocol": "https",
							"host": [
								"reqres",
								"in"
							],
							"path": [
								"api",
								"users",
								"2"
							]
						}
					},
					"status": "OK",
					"code": 200,
					"_postman_previewlanguage": "json",
					"header": [
						{
							"key": "Date",
							"value": "Sat, 07 Oct 2023 12:53:21 GMT"
						},
						{
							"key": "Content-Type",
							"value": "application/json; charset=utf-8"
						},
						{
							"key": "Transfer-Encoding",
							"value": "chunked"
						},
						{
							"key": "Connection",
							"value": "keep-alive"
						},
						{
							"key": "Report-To",
							"value": "{\"group\":\"heroku-nel\",\"max_age\":3600,\"endpoints\":[{\"url\":\"https://nel.heroku.com/reports?ts=1696539769&sid=c4c9725f-1ab0-44d8-820f-430df2718e11&s=f80tuER1yxWflVa5Lg9WnzVVPrz4cEgTFFsXwDtQHjY%3D\"}]}"
						},
						{
							"key": "Reporting-Endpoints",
							"value": "heroku-nel=https://nel.heroku.com/reports?ts=1696539769&sid=c4c9725f-1ab0-44d8-820f-430df2718e11&s=f80tuER1yxWflVa5Lg9WnzVVPrz4cEgTFFsXwDtQHjY%3D"
						},
						{
							"key": "Nel",
							"value": "{\"report_to\":\"heroku-nel\",\"max_age\":3600,\"success_fraction\":0.005,\"failure_fraction\":0.05,\"response_headers\":[\"Via\"]}"
						},
						{
							"key": "X-Powered-By",
							"value": "Express"
						},
						{
							"key": "Access-Control-Allow-Origin",
							"value": "*"
						},
						{
							"key": "Etag",
							"value": "W/\"118-pbdwwFo9SKNhD3Lx5iHJyngpq00\""
						},
						{
							"key": "Via",
							"value": "1.1 vegur"
						},
						{
							"key": "Cache-Control",
							"value": "max-age=14400"
						},
						{
							"key": "CF-Cache-Status",
							"value": "HIT"
						},
						{
							"key": "Age",
							"value": "4001"
						},
						{
							"key": "Vary",
							"value": "Accept-Encoding"
						},
						{
							"key": "Server",
							"value": "cloudflare"
						},
						{
							"key": "CF-RAY",
							"value": "8126495bcae07b4b-DME"
						},
						{
							"key": "Content-Encoding",
							"value": "br"
						}
					],
					"cookie": [],
					"body": "{\n    \"data\": {\n        \"id\": 2,\n        \"email\": \"janet.weaver@reqres.in\",\n        \"first_name\": \"Janet\",\n        \"last_name\": \"Weaver\",\n        \"avatar\": \"https://reqres.in/img/faces/2-image.jpg\"\n    },\n    \"support\": {\n        \"url\": \"https://reqres.in/#support-heading\",\n        \"text\": \"To keep ReqRes free, contributions towards server costs are appreciated!\"\n    }\n}"
				}
			]
		},
		{
			"name": "SINGLE USER NOT FOUND",
			"request": {
				"method": "GET",
				"header": [],
				"url": {
					"raw": "https://reqres.in/api/users/23",
					"protocol": "https",
					"host": [
						"reqres",
						"in"
					],
					"path": [
						"api",
						"users",
						"23"
					]
				}
			},
			"response": [
				{
					"name": "New Request",
					"originalRequest": {
						"method": "GET",
						"header": [],
						"url": {
							"raw": "https://reqres.in/api/users/23",
							"protocol": "https",
							"host": [
								"reqres",
								"in"
							],
							"path": [
								"api",
								"users",
								"23"
							]
						}
					},
					"status": "Not Found",
					"code": 404,
					"_postman_previewlanguage": "json",
					"header": [
						{
							"key": "Date",
							"value": "Sun, 08 Oct 2023 10:56:28 GMT"
						},
						{
							"key": "Content-Type",
							"value": "application/json; charset=utf-8"
						},
						{
							"key": "Content-Length",
							"value": "2"
						},
						{
							"key": "Connection",
							"value": "keep-alive"
						},
						{
							"key": "Report-To",
							"value": "{\"group\":\"heroku-nel\",\"max_age\":3600,\"endpoints\":[{\"url\":\"https://nel.heroku.com/reports?ts=1696762490&sid=c4c9725f-1ab0-44d8-820f-430df2718e11&s=2RFNdDSBHdZB0b2%2FwD0A5zaTS1F%2FsgED1WK6%2FO%2FfMOg%3D\"}]}"
						},
						{
							"key": "Reporting-Endpoints",
							"value": "heroku-nel=https://nel.heroku.com/reports?ts=1696762490&sid=c4c9725f-1ab0-44d8-820f-430df2718e11&s=2RFNdDSBHdZB0b2%2FwD0A5zaTS1F%2FsgED1WK6%2FO%2FfMOg%3D"
						},
						{
							"key": "Nel",
							"value": "{\"report_to\":\"heroku-nel\",\"max_age\":3600,\"success_fraction\":0.005,\"failure_fraction\":0.05,\"response_headers\":[\"Via\"]}"
						},
						{
							"key": "X-Powered-By",
							"value": "Express"
						},
						{
							"key": "Access-Control-Allow-Origin",
							"value": "*"
						},
						{
							"key": "Etag",
							"value": "W/\"2-vyGp6PvFo4RvsFtPoIWeCReyIC8\""
						},
						{
							"key": "Via",
							"value": "1.1 vegur"
						},
						{
							"key": "Cache-Control",
							"value": "max-age=14400"
						},
						{
							"key": "CF-Cache-Status",
							"value": "HIT"
						},
						{
							"key": "Age",
							"value": "98"
						},
						{
							"key": "Vary",
							"value": "Accept-Encoding"
						},
						{
							"key": "Server",
							"value": "cloudflare"
						},
						{
							"key": "CF-RAY",
							"value": "812ddb847eac7b77-DME"
						}
					],
					"cookie": [],
					"body": "{}"
				}
			]
		},
		{
			"name": "LIST <RESOURCE>",
			"request": {
				"method": "GET",
				"header": [],
				"url": {
					"raw": "https://reqres.in/api/unknown",
					"protocol": "https",
					"host": [
						"reqres",
						"in"
					],
					"path": [
						"api",
						"unknown"
					]
				}
			},
			"response": [
				{
					"name": "New Request",
					"originalRequest": {
						"method": "GET",
						"header": [],
						"url": {
							"raw": "https://reqres.in/api/unknown",
							"protocol": "https",
							"host": [
								"reqres",
								"in"
							],
							"path": [
								"api",
								"unknown"
							]
						}
					},
					"status": "OK",
					"code": 200,
					"_postman_previewlanguage": "json",
					"header": [
						{
							"key": "Date",
							"value": "Sun, 08 Oct 2023 10:57:20 GMT"
						},
						{
							"key": "Content-Type",
							"value": "application/json; charset=utf-8"
						},
						{
							"key": "Transfer-Encoding",
							"value": "chunked"
						},
						{
							"key": "Connection",
							"value": "keep-alive"
						},
						{
							"key": "X-Powered-By",
							"value": "Express"
						},
						{
							"key": "Access-Control-Allow-Origin",
							"value": "*"
						},
						{
							"key": "Etag",
							"value": "W/\"2c1-N6Rqerxquq2kgQhL51EiSg4x0R8\""
						},
						{
							"key": "Via",
							"value": "1.1 vegur"
						},
						{
							"key": "Cache-Control",
							"value": "max-age=14400"
						},
						{
							"key": "CF-Cache-Status",
							"value": "HIT"
						},
						{
							"key": "Age",
							"value": "166"
						},
						{
							"key": "Report-To",
							"value": "{\"endpoints\":[{\"url\":\"https:\\/\\/a.nel.cloudflare.com\\/report\\/v3?s=WR2VFBR65x2Ttp9nqIqxTGv9SaGW5BAmDTBEJ9kaFfLE8hPkm7KcJe5U61rOGTLxC%2Bb3oUqqg2IGFjaEj58uV8B9FWExJsRNUT6Qag0CfgBE4ostFZEGZ2gHFw%3D%3D\"}],\"group\":\"cf-nel\",\"max_age\":604800}"
						},
						{
							"key": "NEL",
							"value": "{\"success_fraction\":0,\"report_to\":\"cf-nel\",\"max_age\":604800}"
						},
						{
							"key": "Vary",
							"value": "Accept-Encoding"
						},
						{
							"key": "Server",
							"value": "cloudflare"
						},
						{
							"key": "CF-RAY",
							"value": "812ddcc6af632de2-DME"
						},
						{
							"key": "Content-Encoding",
							"value": "br"
						}
					],
					"cookie": [],
					"body": "{\n    \"page\": 1,\n    \"per_page\": 6,\n    \"total\": 12,\n    \"total_pages\": 2,\n    \"data\": [\n        {\n            \"id\": 1,\n            \"name\": \"cerulean\",\n            \"year\": 2000,\n            \"color\": \"#98B2D1\",\n            \"pantone_value\": \"15-4020\"\n        },\n        {\n            \"id\": 2,\n            \"name\": \"fuchsia rose\",\n            \"year\": 2001,\n            \"color\": \"#C74375\",\n            \"pantone_value\": \"17-2031\"\n        },\n        {\n            \"id\": 3,\n            \"name\": \"true red\",\n            \"year\": 2002,\n            \"color\": \"#BF1932\",\n            \"pantone_value\": \"19-1664\"\n        },\n        {\n            \"id\": 4,\n            \"name\": \"aqua sky\",\n            \"year\": 2003,\n            \"color\": \"#7BC4C4\",\n            \"pantone_value\": \"14-4811\"\n        },\n        {\n            \"id\": 5,\n            \"name\": \"tigerlily\",\n            \"year\": 2004,\n            \"color\": \"#E2583E\",\n            \"pantone_value\": \"17-1456\"\n        },\n        {\n            \"id\": 6,\n            \"name\": \"blue turquoise\",\n            \"year\": 2005,\n            \"color\": \"#53B0AE\",\n            \"pantone_value\": \"15-5217\"\n        }\n    ],\n    \"support\": {\n        \"url\": \"https://reqres.in/#support-heading\",\n        \"text\": \"To keep ReqRes free, contributions towards server costs are appreciated!\"\n    }\n}"
				}
			]
		},
		{
			"name": "SINGLE <RESOURCE>",
			"request": {
				"method": "GET",
				"header": [],
				"url": {
					"raw": "https://reqres.in/api/unknown/2",
					"protocol": "https",
					"host": [
						"reqres",
						"in"
					],
					"path": [
						"api",
						"unknown",
						"2"
					]
				}
			},
			"response": [
				{
					"name": "New Request",
					"originalRequest": {
						"method": "GET",
						"header": [],
						"url": {
							"raw": "https://reqres.in/api/unknown/2",
							"protocol": "https",
							"host": [
								"reqres",
								"in"
							],
							"path": [
								"api",
								"unknown",
								"2"
							]
						}
					},
					"status": "OK",
					"code": 200,
					"_postman_previewlanguage": "json",
					"header": [
						{
							"key": "Date",
							"value": "Sun, 08 Oct 2023 10:58:15 GMT"
						},
						{
							"key": "Content-Type",
							"value": "application/json; charset=utf-8"
						},
						{
							"key": "Transfer-Encoding",
							"value": "chunked"
						},
						{
							"key": "Connection",
							"value": "keep-alive"
						},
						{
							"key": "Report-To",
							"value": "{\"group\":\"heroku-nel\",\"max_age\":3600,\"endpoints\":[{\"url\":\"https://nel.heroku.com/reports?ts=1696401824&sid=c4c9725f-1ab0-44d8-820f-430df2718e11&s=SUftlI9cOD8uKsFH6eG4%2BdWFOAnHRXzIxgEsjPrjOJk%3D\"}]}"
						},
						{
							"key": "Reporting-Endpoints",
							"value": "heroku-nel=https://nel.heroku.com/reports?ts=1696401824&sid=c4c9725f-1ab0-44d8-820f-430df2718e11&s=SUftlI9cOD8uKsFH6eG4%2BdWFOAnHRXzIxgEsjPrjOJk%3D"
						},
						{
							"key": "Nel",
							"value": "{\"report_to\":\"heroku-nel\",\"max_age\":3600,\"success_fraction\":0.005,\"failure_fraction\":0.05,\"response_headers\":[\"Via\"]}"
						},
						{
							"key": "X-Powered-By",
							"value": "Express"
						},
						{
							"key": "Access-Control-Allow-Origin",
							"value": "*"
						},
						{
							"key": "Etag",
							"value": "W/\"e8-ov4wWh4/OY1IMQMqWgskYtOFnVs\""
						},
						{
							"key": "Via",
							"value": "1.1 vegur"
						},
						{
							"key": "Cache-Control",
							"value": "max-age=14400"
						},
						{
							"key": "CF-Cache-Status",
							"value": "HIT"
						},
						{
							"key": "Age",
							"value": "5488"
						},
						{
							"key": "Vary",
							"value": "Accept-Encoding"
						},
						{
							"key": "Server",
							"value": "cloudflare"
						},
						{
							"key": "CF-RAY",
							"value": "812dde1e395e0c36-DME"
						},
						{
							"key": "Content-Encoding",
							"value": "br"
						}
					],
					"cookie": [],
					"body": "{\n    \"data\": {\n        \"id\": 2,\n        \"name\": \"fuchsia rose\",\n        \"year\": 2001,\n        \"color\": \"#C74375\",\n        \"pantone_value\": \"17-2031\"\n    },\n    \"support\": {\n        \"url\": \"https://reqres.in/#support-heading\",\n        \"text\": \"To keep ReqRes free, contributions towards server costs are appreciated!\"\n    }\n}"
				}
			]
		},
		{
			"name": "CREATE",
			"request": {
				"method": "POST",
				"header": [],
				"body": {
					"mode": "raw",
					"raw": "{\r\n    \"name\": \"morpheus\",\r\n    \"job\": \"leader\"\r\n}",
					"options": {
						"raw": {
							"language": "json"
						}
					}
				},
				"url": {
					"raw": "https://reqres.in/api/users",
					"protocol": "https",
					"host": [
						"reqres",
						"in"
					],
					"path": [
						"api",
						"users"
					]
				}
			},
			"response": [
				{
					"name": "New Request",
					"originalRequest": {
						"method": "POST",
						"header": [],
						"body": {
							"mode": "raw",
							"raw": "{\r\n    \"name\": \"morpheus\",\r\n    \"job\": \"leader\"\r\n}",
							"options": {
								"raw": {
									"language": "json"
								}
							}
						},
						"url": {
							"raw": "https://reqres.in/api/users",
							"protocol": "https",
							"host": [
								"reqres",
								"in"
							],
							"path": [
								"api",
								"users"
							]
						}
					},
					"status": "Created",
					"code": 201,
					"_postman_previewlanguage": "json",
					"header": [
						{
							"key": "Date",
							"value": "Sun, 08 Oct 2023 11:45:17 GMT"
						},
						{
							"key": "Content-Type",
							"value": "application/json; charset=utf-8"
						},
						{
							"key": "Content-Length",
							"value": "84"
						},
						{
							"key": "Connection",
							"value": "keep-alive"
						},
						{
							"key": "X-Powered-By",
							"value": "Express"
						},
						{
							"key": "Access-Control-Allow-Origin",
							"value": "*"
						},
						{
							"key": "Etag",
							"value": "W/\"54-sd0K5wKZ3dmbaJHpKdXdevKaqbw\""
						},
						{
							"key": "Via",
							"value": "1.1 vegur"
						},
						{
							"key": "CF-Cache-Status",
							"value": "DYNAMIC"
						},
						{
							"key": "Report-To",
							"value": "{\"endpoints\":[{\"url\":\"https:\\/\\/a.nel.cloudflare.com\\/report\\/v3?s=Pg%2B16ddQIurlXie%2BQ%2BeEIZ5lyePEUGo2kOL%2Fb0dV6onFskMikstMXaFLoae62O05p5ga8M50jgvaptnLJ968mh4WYsSVRQeFeMELerdr%2F7kpmXWnzAhWw4v0jA%3D%3D\"}],\"group\":\"cf-nel\",\"max_age\":604800}"
						},
						{
							"key": "NEL",
							"value": "{\"success_fraction\":0,\"report_to\":\"cf-nel\",\"max_age\":604800}"
						},
						{
							"key": "Server",
							"value": "cloudflare"
						},
						{
							"key": "CF-RAY",
							"value": "812e2304099b497d-DME"
						}
					],
					"cookie": [],
					"body": "{\n    \"name\": \"morpheus\",\n    \"job\": \"leader\",\n    \"id\": \"754\",\n    \"createdAt\": \"2023-10-08T11:45:17.548Z\"\n}"
				}
			]
		},
		{
			"name": "UPDATE",
			"request": {
				"method": "PUT",
				"header": [],
				"body": {
					"mode": "raw",
					"raw": "{\r\n    \"name\": \"morpheus\",\r\n    \"job\": \"zion resident\"\r\n}",
					"options": {
						"raw": {
							"language": "json"
						}
					}
				},
				"url": {
					"raw": "https://reqres.in/api/users/2",
					"protocol": "https",
					"host": [
						"reqres",
						"in"
					],
					"path": [
						"api",
						"users",
						"2"
					]
				}
			},
			"response": [
				{
					"name": "New Request",
					"originalRequest": {
						"method": "PUT",
						"header": [],
						"body": {
							"mode": "raw",
							"raw": "{\r\n    \"name\": \"morpheus\",\r\n    \"job\": \"zion resident\"\r\n}",
							"options": {
								"raw": {
									"language": "json"
								}
							}
						},
						"url": {
							"raw": "https://reqres.in/api/users/2",
							"protocol": "https",
							"host": [
								"reqres",
								"in"
							],
							"path": [
								"api",
								"users",
								"2"
							]
						}
					},
					"status": "OK",
					"code": 200,
					"_postman_previewlanguage": "json",
					"header": [
						{
							"key": "Date",
							"value": "Sun, 08 Oct 2023 11:46:39 GMT"
						},
						{
							"key": "Content-Type",
							"value": "application/json; charset=utf-8"
						},
						{
							"key": "Transfer-Encoding",
							"value": "chunked"
						},
						{
							"key": "Connection",
							"value": "keep-alive"
						},
						{
							"key": "Report-To",
							"value": "{\"group\":\"heroku-nel\",\"max_age\":3600,\"endpoints\":[{\"url\":\"https://nel.heroku.com/reports?ts=1696765599&sid=c4c9725f-1ab0-44d8-820f-430df2718e11&s=DcwtO%2FB9wAsexHqt2TWPIqfXEPfl9tV4%2FmjB%2FJ%2Byr%2Bk%3D\"}]}"
						},
						{
							"key": "Reporting-Endpoints",
							"value": "heroku-nel=https://nel.heroku.com/reports?ts=1696765599&sid=c4c9725f-1ab0-44d8-820f-430df2718e11&s=DcwtO%2FB9wAsexHqt2TWPIqfXEPfl9tV4%2FmjB%2FJ%2Byr%2Bk%3D"
						},
						{
							"key": "Nel",
							"value": "{\"report_to\":\"heroku-nel\",\"max_age\":3600,\"success_fraction\":0.005,\"failure_fraction\":0.05,\"response_headers\":[\"Via\"]}"
						},
						{
							"key": "X-Powered-By",
							"value": "Express"
						},
						{
							"key": "Access-Control-Allow-Origin",
							"value": "*"
						},
						{
							"key": "Etag",
							"value": "W/\"50-5gjw/v3uIakEzrHYD+CMIJ/851w\""
						},
						{
							"key": "Via",
							"value": "1.1 vegur"
						},
						{
							"key": "CF-Cache-Status",
							"value": "DYNAMIC"
						},
						{
							"key": "Vary",
							"value": "Accept-Encoding"
						},
						{
							"key": "Server",
							"value": "cloudflare"
						},
						{
							"key": "CF-RAY",
							"value": "812e25027c3e16c3-DME"
						},
						{
							"key": "Content-Encoding",
							"value": "br"
						}
					],
					"cookie": [],
					"body": "{\n    \"name\": \"morpheus\",\n    \"job\": \"zion resident\",\n    \"updatedAt\": \"2023-10-08T11:46:39.217Z\"\n}"
				}
			]
		},
		{
			"name": "UPDATE",
			"request": {
				"method": "PATCH",
				"header": [],
				"body": {
					"mode": "raw",
					"raw": "{\r\n    \"name\": \"morpheus\",\r\n    \"job\": \"zion resident\"\r\n}",
					"options": {
						"raw": {
							"language": "json"
						}
					}
				},
				"url": {
					"raw": "https://reqres.in/api/users/2",
					"protocol": "https",
					"host": [
						"reqres",
						"in"
					],
					"path": [
						"api",
						"users",
						"2"
					]
				}
			},
			"response": [
				{
					"name": "New Request",
					"originalRequest": {
						"method": "PATCH",
						"header": [],
						"body": {
							"mode": "raw",
							"raw": "{\r\n    \"name\": \"morpheus\",\r\n    \"job\": \"zion resident\"\r\n}",
							"options": {
								"raw": {
									"language": "json"
								}
							}
						},
						"url": {
							"raw": "https://reqres.in/api/users/2",
							"protocol": "https",
							"host": [
								"reqres",
								"in"
							],
							"path": [
								"api",
								"users",
								"2"
							]
						}
					},
					"status": "OK",
					"code": 200,
					"_postman_previewlanguage": "json",
					"header": [
						{
							"key": "Date",
							"value": "Sun, 08 Oct 2023 11:54:45 GMT"
						},
						{
							"key": "Content-Type",
							"value": "application/json; charset=utf-8"
						},
						{
							"key": "Transfer-Encoding",
							"value": "chunked"
						},
						{
							"key": "Connection",
							"value": "keep-alive"
						},
						{
							"key": "Report-To",
							"value": "{\"group\":\"heroku-nel\",\"max_age\":3600,\"endpoints\":[{\"url\":\"https://nel.heroku.com/reports?ts=1696766085&sid=c4c9725f-1ab0-44d8-820f-430df2718e11&s=ecZTS6sywsen%2Bm4beUY%2B8m9MBmGAHlx6GrIYAwto5CQ%3D\"}]}"
						},
						{
							"key": "Reporting-Endpoints",
							"value": "heroku-nel=https://nel.heroku.com/reports?ts=1696766085&sid=c4c9725f-1ab0-44d8-820f-430df2718e11&s=ecZTS6sywsen%2Bm4beUY%2B8m9MBmGAHlx6GrIYAwto5CQ%3D"
						},
						{
							"key": "Nel",
							"value": "{\"report_to\":\"heroku-nel\",\"max_age\":3600,\"success_fraction\":0.005,\"failure_fraction\":0.05,\"response_headers\":[\"Via\"]}"
						},
						{
							"key": "X-Powered-By",
							"value": "Express"
						},
						{
							"key": "Access-Control-Allow-Origin",
							"value": "*"
						},
						{
							"key": "Etag",
							"value": "W/\"50-pHL3e/0qgbA+nzKrwQXAL15Kqrs\""
						},
						{
							"key": "Via",
							"value": "1.1 vegur"
						},
						{
							"key": "CF-Cache-Status",
							"value": "DYNAMIC"
						},
						{
							"key": "Server",
							"value": "cloudflare"
						},
						{
							"key": "CF-RAY",
							"value": "812e30e349049d5b-DME"
						},
						{
							"key": "Content-Encoding",
							"value": "br"
						}
					],
					"cookie": [],
					"body": "{\n    \"name\": \"morpheus\",\n    \"job\": \"zion resident\",\n    \"updatedAt\": \"2023-10-08T11:54:45.756Z\"\n}"
				}
			]
		},
		{
			"name": "DELETE",
			"request": {
				"method": "DELETE",
				"header": [],
				"url": {
					"raw": "https://reqres.in/api/users/2",
					"protocol": "https",
					"host": [
						"reqres",
						"in"
					],
					"path": [
						"api",
						"users",
						"2"
					]
				}
			},
			"response": [
				{
					"name": "New Request",
					"originalRequest": {
						"method": "DELETE",
						"header": [],
						"url": {
							"raw": "https://reqres.in/api/users/2",
							"protocol": "https",
							"host": [
								"reqres",
								"in"
							],
							"path": [
								"api",
								"users",
								"2"
							]
						}
					},
					"status": "No Content",
					"code": 204,
					"_postman_previewlanguage": "plain",
					"header": [
						{
							"key": "Date",
							"value": "Sun, 08 Oct 2023 12:00:02 GMT"
						},
						{
							"key": "Content-Length",
							"value": "0"
						},
						{
							"key": "Connection",
							"value": "keep-alive"
						},
						{
							"key": "Report-To",
							"value": "{\"group\":\"heroku-nel\",\"max_age\":3600,\"endpoints\":[{\"url\":\"https://nel.heroku.com/reports?ts=1696766402&sid=c4c9725f-1ab0-44d8-820f-430df2718e11&s=cMDvxswdOIGkct4CTQVOIdLpV5htd6PnWKecdJnD4Qs%3D\"}]}"
						},
						{
							"key": "Reporting-Endpoints",
							"value": "heroku-nel=https://nel.heroku.com/reports?ts=1696766402&sid=c4c9725f-1ab0-44d8-820f-430df2718e11&s=cMDvxswdOIGkct4CTQVOIdLpV5htd6PnWKecdJnD4Qs%3D"
						},
						{
							"key": "Nel",
							"value": "{\"report_to\":\"heroku-nel\",\"max_age\":3600,\"success_fraction\":0.005,\"failure_fraction\":0.05,\"response_headers\":[\"Via\"]}"
						},
						{
							"key": "X-Powered-By",
							"value": "Express"
						},
						{
							"key": "Access-Control-Allow-Origin",
							"value": "*"
						},
						{
							"key": "Etag",
							"value": "W/\"2-vyGp6PvFo4RvsFtPoIWeCReyIC8\""
						},
						{
							"key": "Via",
							"value": "1.1 vegur"
						},
						{
							"key": "CF-Cache-Status",
							"value": "DYNAMIC"
						},
						{
							"key": "Server",
							"value": "cloudflare"
						},
						{
							"key": "CF-RAY",
							"value": "812e389ebb1f9d3d-DME"
						}
					],
					"cookie": [],
					"body": null
				}
			]
		}
	]
}